<?xml version="1.0" encoding="UTF-8" standalone="no"?>
<!DOCTYPE svg PUBLIC "-//W3C//DTD SVG 1.1//EN" "http://www.w3.org/Graphics/SVG/1.1/DTD/svg11.dtd">
<svg width="100%" height="100%" viewBox="0 0 2157 780" version="1.1" xmlns="http://www.w3.org/2000/svg" xmlns:xlink="http://www.w3.org/1999/xlink" xml:space="preserve" xmlns:serif="http://www.serif.com/" style="fill-rule:evenodd;clip-rule:evenodd;stroke-linejoin:round;stroke-miterlimit:2;">
    <g transform="matrix(1,0,0,1,-506.14,0)">
        <g id="ArtBoard2-Kurven" serif:id="ArtBoard2 Kurven" transform="matrix(7.17948,0,0,6.97999,-6982.24,-19096)">
            <rect x="1043.03" y="2735.82" width="300.312" height="111.728" style="fill:none;"/>
            <g transform="matrix(0.878053,0,0,1.55947,665.954,2070.25)">
                <path d="M436.4,471.941C436.994,471.986 437.99,472.041 439.292,472.041C441.648,472.041 443.162,471.808 444.081,471.342C444.828,470.987 445.326,470.466 445.326,469.8C445.326,468.769 444.081,468.147 442.721,467.948L442.721,467.926C444.12,467.626 444.867,466.994 444.867,466.306C444.867,465.674 444.33,465.185 443.526,464.908C442.645,464.553 441.572,464.431 439.829,464.431C438.507,464.431 437.147,464.498 436.4,464.586L436.4,471.941ZM438.737,465.496C438.986,465.463 439.388,465.441 440.078,465.441C441.572,465.441 442.491,465.762 442.491,466.461C442.491,467.094 441.572,467.537 439.944,467.537L438.737,467.537L438.737,465.496ZM438.737,468.536L439.905,468.536C441.534,468.536 442.836,468.891 442.836,469.756C442.836,470.677 441.495,471.01 439.982,471.01C439.446,471.01 439.043,470.999 438.737,470.976L438.737,468.536Z" style="fill:rgb(71,72,71);fill-rule:nonzero;"/>
                <path d="M454.828,471.964C454.732,471.631 454.693,471.154 454.693,470.666L454.693,468.713C454.693,467.537 453.831,466.439 450.843,466.439C449.368,466.439 448.161,466.672 447.472,466.916L447.931,467.804C448.564,467.571 449.521,467.404 450.441,467.404C452.088,467.404 452.337,467.992 452.337,468.347L452.337,468.436C448.889,468.425 446.801,469.113 446.801,470.477C446.801,471.298 447.855,472.086 449.732,472.086C450.939,472.086 451.916,471.786 452.491,471.365L452.548,471.365L452.701,471.964L454.828,471.964ZM452.395,470.067C452.395,470.155 452.376,470.266 452.318,470.366C452.107,470.754 451.418,471.109 450.479,471.109C449.732,471.109 449.138,470.865 449.138,470.333C449.138,469.512 450.728,469.301 452.395,469.323L452.395,470.067Z" style="fill:rgb(71,72,71);fill-rule:nonzero;"/>
                <path d="M456.724,471.697C457.414,471.919 458.429,472.075 459.559,472.075C462.03,472.075 463.352,471.365 463.352,470.388C463.333,469.59 462.547,469.09 460.862,468.735C459.674,468.491 459.233,468.325 459.233,467.981C459.233,467.648 459.693,467.415 460.536,467.415C461.36,467.415 462.107,467.593 462.509,467.726L462.969,466.761C462.432,466.594 461.532,466.439 460.498,466.439C458.333,466.439 456.973,467.182 456.973,468.136C456.954,468.769 457.72,469.346 459.54,469.712C460.689,469.945 461.072,470.133 461.072,470.499C461.072,470.854 460.612,471.098 459.578,471.098C458.735,471.098 457.72,470.899 457.184,470.71L456.724,471.697Z" style="fill:rgb(71,72,71);fill-rule:nonzero;"/>
                <path d="M467.777,471.964L467.777,466.561L465.401,466.561L465.401,471.964L467.777,471.964ZM466.589,464.309C465.804,464.309 465.267,464.631 465.267,465.052C465.267,465.463 465.785,465.784 466.57,465.784C467.394,465.784 467.911,465.463 467.911,465.052C467.892,464.631 467.394,464.309 466.589,464.309Z" style="fill:rgb(71,72,71);fill-rule:nonzero;"/>
                <path d="M469.845,471.697C470.535,471.919 471.55,472.075 472.681,472.075C475.152,472.075 476.473,471.365 476.473,470.388C476.454,469.59 475.669,469.09 473.983,468.735C472.795,468.491 472.355,468.325 472.355,467.981C472.355,467.648 472.815,467.415 473.657,467.415C474.481,467.415 475.228,467.593 475.63,467.726L476.09,466.761C475.554,466.594 474.654,466.439 473.619,466.439C471.455,466.439 470.095,467.182 470.095,468.136C470.075,468.769 470.842,469.346 472.661,469.712C473.811,469.945 474.194,470.133 474.194,470.499C474.194,470.854 473.734,471.098 472.7,471.098C471.857,471.098 470.842,470.899 470.305,470.71L469.845,471.697Z" style="fill:rgb(71,72,71);fill-rule:nonzero;"/>
                <path d="M484.768,464.087L484.768,467.149L484.729,467.149C484.308,466.75 483.389,466.439 482.105,466.439C479.864,466.439 477.91,467.515 477.929,469.323C477.929,470.987 479.691,472.086 481.914,472.086C483.274,472.086 484.404,471.709 484.959,471.109L484.998,471.109L485.093,471.964L487.2,471.964C487.162,471.598 487.124,470.999 487.124,470.444L487.124,464.087L484.768,464.087ZM484.768,469.623C484.768,469.767 484.749,469.9 484.691,470.022C484.461,470.61 483.618,470.987 482.661,470.987C481.166,470.987 480.324,470.266 480.324,469.279C480.324,468.269 481.166,467.493 482.68,467.493C483.752,467.493 484.5,467.926 484.71,468.458C484.749,468.569 484.768,468.702 484.768,468.813L484.768,469.623Z" style="fill:rgb(71,72,71);fill-rule:nonzero;"/>
                <path d="M497.679,469.645C497.717,469.523 497.755,469.323 497.755,469.068C497.755,467.881 496.759,466.439 493.733,466.439C490.744,466.439 489.173,467.848 489.173,469.346C489.173,470.999 490.955,472.075 493.982,472.075C495.322,472.075 496.433,471.93 497.238,471.742L496.893,470.799C496.184,470.954 495.399,471.043 494.307,471.043C492.813,471.043 491.491,470.621 491.434,469.645L497.679,469.645ZM491.434,468.691C491.53,468.136 492.143,467.371 493.598,467.371C495.169,467.371 495.552,468.192 495.533,468.691L491.434,468.691Z" style="fill:rgb(71,72,71);fill-rule:nonzero;"/>
                <path d="M499.767,471.964L502.065,471.964L502.065,468.769C502.065,468.613 502.104,468.458 502.199,468.325C502.41,467.948 503.004,467.548 503.885,467.548C504.977,467.548 505.494,468.081 505.494,468.835L505.494,471.964L507.793,471.964L507.793,468.724C507.793,468.569 507.85,468.403 507.908,468.269C508.157,467.881 508.751,467.548 509.555,467.548C510.685,467.548 511.222,468.081 511.222,468.979L511.222,471.964L513.52,471.964L513.52,468.78C513.52,467.049 511.95,466.439 510.398,466.439C509.632,466.439 509.038,466.55 508.521,466.761C508.08,466.916 507.697,467.138 507.371,467.437L507.333,467.437C506.931,466.838 505.973,466.439 504.747,466.439C503.176,466.439 502.333,466.938 501.874,467.36L501.816,467.36L501.72,466.561L499.69,466.561C499.747,467.027 499.767,467.548 499.767,468.17L499.767,471.964Z" style="fill:rgb(71,72,71);fill-rule:nonzero;"/>
                <path d="M520.359,466.439C517.543,466.439 515.532,467.526 515.532,469.301C515.532,471.032 517.562,472.086 520.206,472.086C522.581,472.086 524.994,471.198 524.994,469.212C524.994,467.571 523.136,466.439 520.359,466.439ZM520.301,467.437C521.91,467.437 522.562,468.403 522.562,469.246C522.562,470.333 521.623,471.098 520.282,471.098C518.846,471.098 517.964,470.311 517.964,469.268C517.964,468.369 518.635,467.437 520.301,467.437Z" style="fill:rgb(71,72,71);fill-rule:nonzero;"/>
                <path d="M529.4,464.087L527.044,464.087L527.044,471.964L529.4,471.964L529.4,470.122L530.205,469.579L532.887,471.964L535.779,471.964L531.833,468.769L535.281,466.561L532.446,466.561L530.186,468.303C529.937,468.491 529.668,468.724 529.439,468.935L529.4,468.935L529.4,464.087Z" style="fill:rgb(71,72,71);fill-rule:nonzero;"/>
                <path d="M536.909,471.964L539.265,471.964L539.265,469.168C539.265,469.013 539.304,468.869 539.342,468.746C539.553,468.136 540.319,467.715 541.449,467.715C541.736,467.715 541.947,467.737 542.139,467.759L542.139,466.472C541.947,466.45 541.813,466.439 541.583,466.439C540.587,466.439 539.495,466.827 539.036,467.593L538.959,467.593L538.882,466.561L536.833,466.561C536.89,467.049 536.909,467.571 536.909,468.303L536.909,471.964Z" style="fill:rgb(71,72,71);fill-rule:nonzero;"/>
                <path d="M551.218,471.964C551.123,471.631 551.084,471.154 551.084,470.666L551.084,468.713C551.084,467.537 550.222,466.439 547.234,466.439C545.759,466.439 544.552,466.672 543.863,466.916L544.322,467.804C544.955,467.571 545.912,467.404 546.832,467.404C548.479,467.404 548.728,467.992 548.728,468.347L548.728,468.436C545.28,468.425 543.192,469.113 543.192,470.477C543.192,471.298 544.246,472.086 546.123,472.086C547.33,472.086 548.307,471.786 548.881,471.365L548.939,471.365L549.092,471.964L551.218,471.964ZM548.786,470.067C548.786,470.155 548.767,470.266 548.709,470.366C548.498,470.754 547.809,471.109 546.87,471.109C546.123,471.109 545.529,470.865 545.529,470.333C545.529,469.512 547.119,469.301 548.786,469.323L548.786,470.067Z" style="fill:rgb(71,72,71);fill-rule:nonzero;"/>
                <path d="M554.092,465.341L554.092,466.561L552.751,466.561L552.751,467.582L554.092,467.582L554.092,470.122C554.092,470.832 554.322,471.32 554.82,471.631C555.26,471.908 555.988,472.075 556.85,472.075C557.597,472.075 558.21,472.019 558.555,471.941L558.517,470.899C558.306,470.932 558,470.965 557.597,470.965C556.697,470.965 556.39,470.621 556.39,469.967L556.39,467.582L558.632,467.582L558.632,466.561L556.39,466.561L556.39,465.019L554.092,465.341Z" style="fill:rgb(71,72,71);fill-rule:nonzero;"/>
                <path d="M562.903,471.964L562.903,466.561L560.528,466.561L560.528,471.964L562.903,471.964ZM561.716,464.309C560.93,464.309 560.394,464.631 560.394,465.052C560.394,465.463 560.911,465.784 561.697,465.784C562.52,465.784 563.037,465.463 563.037,465.052C563.018,464.631 562.52,464.309 561.716,464.309Z" style="fill:rgb(71,72,71);fill-rule:nonzero;"/>
                <path d="M564.972,471.697C565.662,471.919 566.677,472.075 567.807,472.075C570.278,472.075 571.6,471.365 571.6,470.388C571.581,469.59 570.796,469.09 569.11,468.735C567.922,468.491 567.482,468.325 567.482,467.981C567.482,467.648 567.941,467.415 568.784,467.415C569.608,467.415 570.355,467.593 570.757,467.726L571.217,466.761C570.681,466.594 569.78,466.439 568.746,466.439C566.581,466.439 565.221,467.182 565.221,468.136C565.202,468.769 565.968,469.346 567.788,469.712C568.937,469.945 569.321,470.133 569.321,470.499C569.321,470.854 568.861,471.098 567.826,471.098C566.984,471.098 565.968,470.899 565.432,470.71L564.972,471.697Z" style="fill:rgb(71,72,71);fill-rule:nonzero;"/>
                <path d="M580.182,470.788C579.722,470.899 579.147,470.999 578.324,470.999C576.715,470.999 575.469,470.366 575.469,469.257C575.45,468.269 576.523,467.504 578.324,467.504C579.167,467.504 579.722,467.615 580.105,467.715L580.527,466.694C579.99,466.55 579.109,466.439 578.247,466.439C574.971,466.439 573.056,467.704 573.056,469.323C573.056,470.999 574.952,472.075 577.864,472.075C579.032,472.075 580.009,471.93 580.507,471.797L580.182,470.788Z" style="fill:rgb(71,72,71);fill-rule:nonzero;"/>
                <path d="M582.365,471.964L584.741,471.964L584.741,468.735C584.741,468.58 584.76,468.436 584.837,468.325C585.086,467.914 585.737,467.559 586.656,467.559C587.959,467.559 588.457,468.147 588.457,468.935L588.457,471.964L590.813,471.964L590.813,468.78C590.813,467.049 589.147,466.439 587.557,466.439C586.963,466.439 586.407,466.528 585.948,466.683C585.45,466.838 585.066,467.049 584.779,467.304L584.741,467.304L584.741,464.087L582.365,464.087L582.365,471.964Z" style="fill:rgb(71,72,71);fill-rule:nonzero;"/>
                <path d="M601.349,469.645C601.387,469.523 601.425,469.323 601.425,469.068C601.425,467.881 600.429,466.439 597.403,466.439C594.414,466.439 592.844,467.848 592.844,469.346C592.844,470.999 594.625,472.075 597.652,472.075C598.993,472.075 600.104,471.93 600.908,471.742L600.563,470.799C599.855,470.954 599.069,471.043 597.977,471.043C596.483,471.043 595.161,470.621 595.104,469.645L601.349,469.645ZM595.104,468.691C595.2,468.136 595.813,467.371 597.269,467.371C598.839,467.371 599.222,468.192 599.203,468.691L595.104,468.691Z" style="fill:rgb(71,72,71);fill-rule:nonzero;"/>
                <path d="M607.734,471.964L610.071,471.964L610.071,469.146C610.378,469.179 610.78,469.19 611.221,469.19C612.887,469.19 614.362,468.935 615.301,468.391C616.029,467.992 616.412,467.404 616.412,466.694C616.412,465.995 615.914,465.407 615.148,465.041C614.324,464.642 613.06,464.431 611.336,464.431C609.746,464.431 608.577,464.498 607.734,464.586L607.734,471.964ZM610.071,465.54C610.32,465.507 610.78,465.474 611.431,465.474C613.06,465.474 614.056,465.918 614.056,466.75C614.056,467.626 612.983,468.125 611.221,468.125C610.742,468.125 610.359,468.114 610.071,468.07L610.071,465.54Z" style="fill:rgb(71,72,71);fill-rule:nonzero;"/>
                <path d="M625.836,471.964C625.741,471.631 625.702,471.154 625.702,470.666L625.702,468.713C625.702,467.537 624.84,466.439 621.852,466.439C620.377,466.439 619.17,466.672 618.481,466.916L618.94,467.804C619.573,467.571 620.53,467.404 621.45,467.404C623.097,467.404 623.346,467.992 623.346,468.347L623.346,468.436C619.898,468.425 617.81,469.113 617.81,470.477C617.81,471.298 618.864,472.086 620.741,472.086C621.948,472.086 622.925,471.786 623.499,471.365L623.557,471.365L623.71,471.964L625.836,471.964ZM623.404,470.067C623.404,470.155 623.384,470.266 623.327,470.366C623.116,470.754 622.427,471.109 621.488,471.109C620.741,471.109 620.147,470.865 620.147,470.333C620.147,469.512 621.737,469.301 623.404,469.323L623.404,470.067Z" style="fill:rgb(71,72,71);fill-rule:nonzero;"/>
                <path d="M628.307,471.964L630.664,471.964L630.664,469.168C630.664,469.013 630.702,468.869 630.74,468.746C630.951,468.136 631.717,467.715 632.847,467.715C633.135,467.715 633.345,467.737 633.537,467.759L633.537,466.472C633.345,466.45 633.211,466.439 632.981,466.439C631.985,466.439 630.893,466.827 630.434,467.593L630.357,467.593L630.281,466.561L628.231,466.561C628.288,467.049 628.307,467.571 628.307,468.303L628.307,471.964Z" style="fill:rgb(71,72,71);fill-rule:nonzero;"/>
                <path d="M635.644,465.341L635.644,466.561L634.303,466.561L634.303,467.582L635.644,467.582L635.644,470.122C635.644,470.832 635.874,471.32 636.372,471.631C636.813,471.908 637.54,472.075 638.402,472.075C639.15,472.075 639.763,472.019 640.107,471.941L640.069,470.899C639.858,470.932 639.552,470.965 639.15,470.965C638.249,470.965 637.943,470.621 637.943,469.967L637.943,467.582L640.184,467.582L640.184,466.561L637.943,466.561L637.943,465.019L635.644,465.341Z" style="fill:rgb(71,72,71);fill-rule:nonzero;"/>
                <path d="M649.992,469.645C650.03,469.523 650.068,469.323 650.068,469.068C650.068,467.881 649.072,466.439 646.046,466.439C643.057,466.439 641.487,467.848 641.487,469.346C641.487,470.999 643.268,472.075 646.295,472.075C647.635,472.075 648.747,471.93 649.551,471.742L649.206,470.799C648.497,470.954 647.712,471.043 646.62,471.043C645.126,471.043 643.804,470.621 643.747,469.645L649.992,469.645ZM643.747,468.691C643.843,468.136 644.456,467.371 645.911,467.371C647.482,467.371 647.865,468.192 647.846,468.691L643.747,468.691Z" style="fill:rgb(71,72,71);fill-rule:nonzero;"/>
                <path d="M654.455,471.964L654.455,466.561L652.08,466.561L652.08,471.964L654.455,471.964ZM653.267,464.309C652.482,464.309 651.945,464.631 651.945,465.052C651.945,465.463 652.463,465.784 653.248,465.784C654.072,465.784 654.589,465.463 654.589,465.052C654.57,464.631 654.072,464.309 653.267,464.309Z" style="fill:rgb(71,72,71);fill-rule:nonzero;"/>
                <path d="M661.396,471.941C662.162,471.997 663.197,472.041 664.576,472.041C667.085,472.041 669.135,471.697 670.418,471.021C671.644,470.377 672.43,469.379 672.43,468.048C672.43,466.772 671.663,465.884 670.418,465.296C669.231,464.719 667.564,464.431 665.151,464.431C663.752,464.431 662.43,464.486 661.396,464.586L661.396,471.941ZM663.752,465.574C664.078,465.529 664.614,465.496 665.361,465.496C668.311,465.496 669.959,466.439 669.939,468.092C669.939,469.989 668.12,470.965 665.055,470.954C664.576,470.954 664.078,470.954 663.752,470.921L663.752,465.574Z" style="fill:rgb(71,72,71);fill-rule:nonzero;"/>
                <path d="M682.793,469.645C682.831,469.523 682.869,469.323 682.869,469.068C682.869,467.881 681.873,466.439 678.846,466.439C675.858,466.439 674.287,467.848 674.287,469.346C674.287,470.999 676.069,472.075 679.096,472.075C680.436,472.075 681.547,471.93 682.352,471.742L682.007,470.799C681.298,470.954 680.513,471.043 679.421,471.043C677.927,471.043 676.605,470.621 676.548,469.645L682.793,469.645ZM676.548,468.691C676.644,468.136 677.257,467.371 678.712,467.371C680.283,467.371 680.666,468.192 680.647,468.691L676.548,468.691Z" style="fill:rgb(71,72,71);fill-rule:nonzero;"/>
                <path d="M693.232,466.561L690.876,466.561L690.876,469.823C690.876,469.978 690.819,470.122 690.742,470.244C690.493,470.588 689.88,470.976 688.941,470.976C687.696,470.976 687.198,470.399 687.198,469.501L687.198,466.561L684.842,466.561L684.842,469.734C684.842,471.498 686.394,472.086 688.099,472.086C689.765,472.086 690.685,471.531 691.087,471.143L691.125,471.143L691.24,471.964L693.309,471.964C693.271,471.52 693.232,470.987 693.232,470.344L693.232,466.561Z" style="fill:rgb(71,72,71);fill-rule:nonzero;"/>
                <path d="M696.297,465.341L696.297,466.561L694.956,466.561L694.956,467.582L696.297,467.582L696.297,470.122C696.297,470.832 696.527,471.32 697.025,471.631C697.466,471.908 698.194,472.075 699.056,472.075C699.803,472.075 700.416,472.019 700.76,471.941L700.722,470.899C700.511,470.932 700.205,470.965 699.803,470.965C698.902,470.965 698.596,470.621 698.596,469.967L698.596,467.582L700.837,467.582L700.837,466.561L698.596,466.561L698.596,465.019L696.297,465.341Z" style="fill:rgb(71,72,71);fill-rule:nonzero;"/>
                <path d="M702.159,471.697C702.848,471.919 703.864,472.075 704.994,472.075C707.465,472.075 708.787,471.365 708.787,470.388C708.768,469.59 707.982,469.09 706.296,468.735C705.109,468.491 704.668,468.325 704.668,467.981C704.668,467.648 705.128,467.415 705.971,467.415C706.795,467.415 707.542,467.593 707.944,467.726L708.404,466.761C707.867,466.594 706.967,466.439 705.933,466.439C703.768,466.439 702.408,467.182 702.408,468.136C702.389,468.769 703.155,469.346 704.975,469.712C706.124,469.945 706.507,470.133 706.507,470.499C706.507,470.854 706.047,471.098 705.013,471.098C704.17,471.098 703.155,470.899 702.619,470.71L702.159,471.697Z" style="fill:rgb(71,72,71);fill-rule:nonzero;"/>
                <path d="M717.368,470.788C716.909,470.899 716.334,470.999 715.51,470.999C713.901,470.999 712.656,470.366 712.656,469.257C712.637,468.269 713.71,467.504 715.51,467.504C716.353,467.504 716.909,467.615 717.292,467.715L717.713,466.694C717.177,466.55 716.296,466.439 715.434,466.439C712.158,466.439 710.243,467.704 710.243,469.323C710.243,470.999 712.139,472.075 715.051,472.075C716.219,472.075 717.196,471.93 717.694,471.797L717.368,470.788Z" style="fill:rgb(71,72,71);fill-rule:nonzero;"/>
                <path d="M719.552,471.964L721.927,471.964L721.927,468.735C721.927,468.58 721.947,468.436 722.023,468.325C722.272,467.914 722.924,467.559 723.843,467.559C725.146,467.559 725.644,468.147 725.644,468.935L725.644,471.964L728,471.964L728,468.78C728,467.049 726.333,466.439 724.743,466.439C724.149,466.439 723.594,466.528 723.134,466.683C722.636,466.838 722.253,467.049 721.966,467.304L721.927,467.304L721.927,464.087L719.552,464.087L719.552,471.964Z" style="fill:rgb(71,72,71);fill-rule:nonzero;"/>
                <rect x="730.624" y="464.087" width="2.375" height="7.877" style="fill:rgb(71,72,71);fill-rule:nonzero;"/>
                <path d="M743.037,471.964C742.941,471.631 742.903,471.154 742.903,470.666L742.903,468.713C742.903,467.537 742.041,466.439 739.053,466.439C737.578,466.439 736.371,466.672 735.681,466.916L736.141,467.804C736.773,467.571 737.731,467.404 738.65,467.404C740.298,467.404 740.547,467.992 740.547,468.347L740.547,468.436C737.099,468.425 735.011,469.113 735.011,470.477C735.011,471.298 736.064,472.086 737.942,472.086C739.148,472.086 740.125,471.786 740.7,471.365L740.757,471.365L740.911,471.964L743.037,471.964ZM740.604,470.067C740.604,470.155 740.585,470.266 740.528,470.366C740.317,470.754 739.627,471.109 738.689,471.109C737.942,471.109 737.348,470.865 737.348,470.333C737.348,469.512 738.938,469.301 740.604,469.323L740.604,470.067Z" style="fill:rgb(71,72,71);fill-rule:nonzero;"/>
                <path d="M745.508,471.964L747.883,471.964L747.883,468.791C747.883,468.636 747.902,468.469 747.979,468.347C748.228,467.937 748.879,467.548 749.818,467.548C751.101,467.548 751.599,468.136 751.599,468.913L751.599,471.964L753.956,471.964L753.956,468.758C753.956,467.049 752.27,466.439 750.642,466.439C749.09,466.439 748.075,466.949 747.673,467.371L747.615,467.371L747.5,466.561L745.431,466.561C745.489,467.027 745.508,467.548 745.508,468.17L745.508,471.964Z" style="fill:rgb(71,72,71);fill-rule:nonzero;"/>
                <path d="M762.825,464.087L762.825,467.149L762.786,467.149C762.365,466.75 761.445,466.439 760.162,466.439C757.921,466.439 755.967,467.515 755.986,469.323C755.986,470.987 757.748,472.086 759.97,472.086C761.331,472.086 762.461,471.709 763.016,471.109L763.055,471.109L763.15,471.964L765.257,471.964C765.219,471.598 765.181,470.999 765.181,470.444L765.181,464.087L762.825,464.087ZM762.825,469.623C762.825,469.767 762.805,469.9 762.748,470.022C762.518,470.61 761.675,470.987 760.718,470.987C759.223,470.987 758.381,470.266 758.381,469.279C758.381,468.269 759.223,467.493 760.737,467.493C761.809,467.493 762.556,467.926 762.767,468.458C762.805,468.569 762.825,468.702 762.825,468.813L762.825,469.623Z" style="fill:rgb(71,72,71);fill-rule:nonzero;"/>
                <path d="M437.092,483.077L438.217,483.077L438.217,480.793L441.514,480.793L441.514,480.254L438.217,480.254L438.217,478.577L441.786,478.577L441.786,478.03L437.092,478.03L437.092,483.077Z" style="fill:rgb(0,151,50);fill-rule:nonzero;"/>
                <path d="M443.351,483.077L444.475,483.077L444.475,481.145C444.475,481.033 444.501,480.928 444.527,480.838C444.682,480.344 445.251,479.992 446.053,479.992C446.208,479.992 446.324,480 446.441,480.015L446.441,479.393C446.337,479.378 446.247,479.371 446.118,479.371C445.355,479.371 444.669,479.678 444.385,480.164L444.333,480.164L444.294,479.453L443.299,479.453C443.338,479.79 443.351,480.157 443.351,480.584L443.351,483.077Z" style="fill:rgb(0,151,50);fill-rule:nonzero;"/>
                <path d="M452.608,481.385C452.621,481.318 452.647,481.213 452.647,481.078C452.647,480.411 452.104,479.371 450.061,479.371C448.238,479.371 447.126,480.232 447.126,481.325C447.126,482.418 448.277,483.152 450.203,483.152C451.199,483.152 451.884,483.032 452.285,482.928L452.091,482.456C451.665,482.561 451.173,482.643 450.359,482.643C449.221,482.643 448.238,482.276 448.212,481.385L452.608,481.385ZM448.225,480.913C448.316,480.456 448.82,479.842 449.971,479.842C451.251,479.842 451.561,480.494 451.548,480.913L448.225,480.913Z" style="fill:rgb(0,151,50);fill-rule:nonzero;"/>
                <path d="M455.453,483.077L455.453,479.453L454.315,479.453L454.315,483.077L455.453,483.077ZM454.884,478.023C454.47,478.023 454.173,478.202 454.173,478.435C454.173,478.659 454.457,478.839 454.858,478.839C455.311,478.839 455.595,478.659 455.582,478.435C455.582,478.202 455.311,478.023 454.884,478.023Z" style="fill:rgb(0,151,50);fill-rule:nonzero;"/>
                <path d="M457.599,483.077L458.737,483.077L458.737,480.891C458.737,480.763 458.75,480.666 458.815,480.576C459.022,480.217 459.604,479.917 460.341,479.917C461.414,479.917 461.789,480.411 461.789,480.996L461.789,483.077L462.927,483.077L462.927,480.921C462.927,479.67 461.582,479.371 460.741,479.371C460.315,479.371 459.914,479.446 459.578,479.558C459.229,479.67 458.944,479.835 458.763,480.022L458.737,480.022L458.737,477.761L457.599,477.761L457.599,483.077Z" style="fill:rgb(0,151,50);fill-rule:nonzero;"/>
                <path d="M469.805,481.385C469.818,481.318 469.844,481.213 469.844,481.078C469.844,480.411 469.301,479.371 467.258,479.371C465.435,479.371 464.323,480.232 464.323,481.325C464.323,482.418 465.474,483.152 467.4,483.152C468.396,483.152 469.081,483.032 469.482,482.928L469.288,482.456C468.861,482.561 468.37,482.643 467.555,482.643C466.418,482.643 465.435,482.276 465.409,481.385L469.805,481.385ZM465.422,480.913C465.513,480.456 466.017,479.842 467.168,479.842C468.448,479.842 468.758,480.494 468.745,480.913L465.422,480.913Z" style="fill:rgb(0,151,50);fill-rule:nonzero;"/>
                <path d="M473.167,483.077L473.167,479.453L472.029,479.453L472.029,483.077L473.167,483.077ZM472.598,478.023C472.184,478.023 471.887,478.202 471.887,478.435C471.887,478.659 472.172,478.839 472.572,478.839C473.025,478.839 473.309,478.659 473.296,478.435C473.296,478.202 473.025,478.023 472.598,478.023Z" style="fill:rgb(0,151,50);fill-rule:nonzero;"/>
                <path d="M475.572,478.584L475.572,479.453L474.602,479.453L474.602,479.955L475.572,479.955L475.572,481.932C475.572,482.358 475.688,482.68 476.012,482.875C476.283,483.055 476.71,483.152 477.24,483.152C477.68,483.152 478.029,483.115 478.249,483.062L478.197,482.568C478.055,482.591 477.835,482.613 477.537,482.613C476.904,482.613 476.684,482.358 476.684,481.909L476.684,479.955L478.313,479.955L478.313,479.453L476.684,479.453L476.684,478.412L475.572,478.584Z" style="fill:rgb(0,151,50);fill-rule:nonzero;"/>
                <path d="M491.075,483.077L492.174,483.077L491.631,478.03L490.196,478.03L488.644,480.471C488.256,481.108 487.946,481.662 487.726,482.171L487.688,482.171C487.468,481.647 487.17,481.093 486.808,480.471L485.321,478.03L483.886,478.03L483.278,483.077L484.352,483.077L484.584,480.913C484.662,480.157 484.727,479.311 484.752,478.682L484.778,478.682C485.024,479.281 485.373,479.932 485.787,480.644L487.196,483.047L488.05,483.047L489.588,480.599C490.028,479.902 490.39,479.273 490.687,478.682L490.726,478.682C490.713,479.311 490.791,480.157 490.855,480.861L491.075,483.077Z" style="fill:rgb(27,58,119);fill-rule:nonzero;"/>
                <path d="M498.368,483.077C498.29,482.83 498.264,482.523 498.264,482.209L498.264,480.853C498.264,480.127 497.799,479.371 495.885,479.371C495.096,479.371 494.346,479.498 493.829,479.693L494.088,480.127C494.527,479.962 495.135,479.857 495.717,479.857C496.997,479.857 497.139,480.397 497.139,480.696L497.139,480.771C494.721,480.763 493.377,481.243 493.377,482.119C493.377,482.643 494.023,483.16 495.29,483.16C496.183,483.16 496.855,482.905 497.204,482.621L497.243,482.621L497.333,483.077L498.368,483.077ZM497.165,481.857C497.165,481.924 497.139,481.999 497.101,482.066C496.92,482.373 496.402,482.673 495.588,482.673C495.006,482.673 494.515,482.471 494.515,482.044C494.515,481.34 495.924,481.213 497.165,481.228L497.165,481.857Z" style="fill:rgb(27,58,119);fill-rule:nonzero;"/>
                <path d="M504.367,482.448C504.044,482.531 503.617,482.628 502.971,482.628C501.73,482.628 500.799,482.111 500.799,481.273C500.799,480.516 501.574,479.902 503.01,479.902C503.63,479.902 504.057,479.985 504.328,480.075L504.587,479.565C504.277,479.475 503.682,479.378 503.01,479.378C500.967,479.378 499.648,480.187 499.648,481.303C499.648,482.411 500.876,483.152 502.764,483.152C503.604,483.152 504.264,483.032 504.561,482.943L504.367,482.448Z" style="fill:rgb(27,58,119);fill-rule:nonzero;"/>
                <path d="M505.893,483.077L507.031,483.077L507.031,480.891C507.031,480.763 507.044,480.666 507.108,480.576C507.315,480.217 507.897,479.917 508.634,479.917C509.707,479.917 510.082,480.411 510.082,480.996L510.082,483.077L511.22,483.077L511.22,480.921C511.22,479.67 509.875,479.371 509.035,479.371C508.608,479.371 508.207,479.446 507.871,479.558C507.522,479.67 507.238,479.835 507.057,480.022L507.031,480.022L507.031,477.761L505.893,477.761L505.893,483.077Z" style="fill:rgb(27,58,119);fill-rule:nonzero;"/>
                <path d="M513.328,478.584L513.328,479.453L512.358,479.453L512.358,479.955L513.328,479.955L513.328,481.932C513.328,482.358 513.444,482.68 513.767,482.875C514.039,483.055 514.466,483.152 514.996,483.152C515.435,483.152 515.784,483.115 516.004,483.062L515.953,482.568C515.81,482.591 515.59,482.613 515.293,482.613C514.66,482.613 514.44,482.358 514.44,481.909L514.44,479.955L516.069,479.955L516.069,479.453L514.44,479.453L514.44,478.412L513.328,478.584Z" style="fill:rgb(27,58,119);fill-rule:nonzero;"/>
                <path d="M518.28,483.077L518.332,482.478L518.37,482.478C518.836,482.957 519.56,483.16 520.465,483.16C521.862,483.16 523.271,482.516 523.271,481.22C523.284,480.119 522.185,479.371 520.633,479.371C519.625,479.371 518.901,479.633 518.5,480.037L518.474,480.037L518.474,477.761L517.349,477.761L517.349,482.141C517.349,482.463 517.323,482.83 517.297,483.077L518.28,483.077ZM518.474,480.973C518.474,480.868 518.513,480.778 518.539,480.704C518.771,480.202 519.495,479.895 520.271,479.895C521.487,479.895 522.133,480.516 522.133,481.243C522.133,482.074 521.422,482.635 520.232,482.635C519.405,482.635 518.745,482.321 518.526,481.864C518.5,481.789 518.474,481.707 518.474,481.625L518.474,480.973Z" style="fill:rgb(27,58,119);fill-rule:nonzero;"/>
                <path d="M529.736,481.385C529.749,481.318 529.775,481.213 529.775,481.078C529.775,480.411 529.232,479.371 527.189,479.371C525.366,479.371 524.254,480.232 524.254,481.325C524.254,482.418 525.404,483.152 527.331,483.152C528.327,483.152 529.012,483.032 529.413,482.928L529.219,482.456C528.792,482.561 528.301,482.643 527.486,482.643C526.348,482.643 525.366,482.276 525.34,481.385L529.736,481.385ZM525.353,480.913C525.443,480.456 525.947,479.842 527.098,479.842C528.378,479.842 528.689,480.494 528.676,480.913L525.353,480.913Z" style="fill:rgb(27,58,119);fill-rule:nonzero;"/>
                <path d="M535.58,479.453L535.529,480L535.503,480C535.231,479.7 534.636,479.371 533.55,479.371C532.115,479.371 530.731,480.067 530.731,481.295C530.731,482.299 531.843,483.062 533.395,483.062C534.365,483.062 535.037,482.793 535.386,482.456L535.412,482.456L535.412,482.86C535.412,483.774 534.559,484.126 533.395,484.126C532.619,484.126 531.973,483.991 531.559,483.841L531.275,484.343C531.779,484.538 532.606,484.642 533.356,484.642C534.145,484.642 535.024,484.538 535.632,484.208C536.24,483.894 536.524,483.384 536.524,482.553L536.524,480.449C536.524,480.007 536.55,479.715 536.576,479.453L535.58,479.453ZM535.399,481.535C535.399,481.647 535.373,481.774 535.309,481.887C535.063,482.306 534.429,482.561 533.731,482.561C532.503,482.561 531.882,481.969 531.882,481.258C531.882,480.419 532.658,479.887 533.744,479.887C534.572,479.887 535.128,480.202 535.335,480.584C535.386,480.674 535.399,480.771 535.399,480.883L535.399,481.535Z" style="fill:rgb(27,58,119);fill-rule:nonzero;"/>
                <path d="M538.412,483.077L539.537,483.077L539.537,481.145C539.537,481.033 539.563,480.928 539.589,480.838C539.744,480.344 540.313,479.992 541.114,479.992C541.269,479.992 541.386,480 541.502,480.015L541.502,479.393C541.399,479.378 541.308,479.371 541.179,479.371C540.416,479.371 539.731,479.678 539.446,480.164L539.395,480.164L539.356,479.453L538.36,479.453C538.399,479.79 538.412,480.157 538.412,480.584L538.412,483.077Z" style="fill:rgb(27,58,119);fill-rule:nonzero;"/>
                <path d="M547.67,481.385C547.683,481.318 547.709,481.213 547.709,481.078C547.709,480.411 547.166,479.371 545.123,479.371C543.299,479.371 542.187,480.232 542.187,481.325C542.187,482.418 543.338,483.152 545.265,483.152C546.26,483.152 546.946,483.032 547.347,482.928L547.153,482.456C546.726,482.561 546.235,482.643 545.42,482.643C544.282,482.643 543.299,482.276 543.274,481.385L547.67,481.385ZM543.287,480.913C543.377,480.456 543.881,479.842 545.032,479.842C546.312,479.842 546.622,480.494 546.61,480.913L543.287,480.913Z" style="fill:rgb(27,58,119);fill-rule:nonzero;"/>
                <path d="M549.118,483.077L550.256,483.077L550.256,480.898C550.256,480.786 550.282,480.674 550.333,480.591C550.527,480.224 551.109,479.917 551.859,479.917C552.932,479.917 553.307,480.404 553.307,480.988L553.307,483.077L554.445,483.077L554.445,480.913C554.445,479.67 553.1,479.371 552.234,479.371C551.2,479.371 550.476,479.708 550.165,480.052L550.139,480.052L550.075,479.453L549.066,479.453C549.105,479.753 549.118,480.06 549.118,480.434L549.118,483.077Z" style="fill:rgb(27,58,119);fill-rule:nonzero;"/>
                <path d="M555.583,483.077L560.664,483.077L560.664,482.553L557.005,482.553L557.005,482.538C557.29,482.351 557.548,482.171 557.807,481.969L560.6,479.865L560.613,479.453L555.842,479.453L555.842,479.985L559.229,479.985L559.229,480C558.945,480.194 558.686,480.367 558.415,480.561L555.583,482.695L555.583,483.077Z" style="fill:rgb(27,58,119);fill-rule:nonzero;"/>
                <path d="M567.065,479.453L565.927,479.453L565.927,481.677C565.927,481.797 565.888,481.917 565.824,482.014C565.617,482.306 565.086,482.613 564.324,482.613C563.289,482.613 562.927,482.149 562.927,481.46L562.927,479.453L561.789,479.453L561.789,481.572C561.789,482.845 562.966,483.16 563.949,483.16C565.061,483.16 565.72,482.778 566.017,482.486L566.043,482.486L566.108,483.077L567.117,483.077C567.078,482.793 567.065,482.463 567.065,482.089L567.065,479.453Z" style="fill:rgb(27,58,119);fill-rule:nonzero;"/>
                <path d="M568.953,483.077L570.09,483.077L570.09,480.898C570.09,480.786 570.116,480.674 570.168,480.591C570.362,480.224 570.944,479.917 571.694,479.917C572.767,479.917 573.142,480.404 573.142,480.988L573.142,483.077L574.28,483.077L574.28,480.913C574.28,479.67 572.935,479.371 572.069,479.371C571.034,479.371 570.31,479.708 570,480.052L569.974,480.052L569.909,479.453L568.901,479.453C568.94,479.753 568.953,480.06 568.953,480.434L568.953,483.077Z" style="fill:rgb(27,58,119);fill-rule:nonzero;"/>
                <path d="M580.525,479.453L580.473,480L580.447,480C580.176,479.7 579.581,479.371 578.495,479.371C577.06,479.371 575.676,480.067 575.676,481.295C575.676,482.299 576.788,483.062 578.34,483.062C579.309,483.062 579.982,482.793 580.331,482.456L580.357,482.456L580.357,482.86C580.357,483.774 579.503,484.126 578.34,484.126C577.564,484.126 576.917,483.991 576.504,483.841L576.219,484.343C576.723,484.538 577.551,484.642 578.301,484.642C579.09,484.642 579.969,484.538 580.577,484.208C581.184,483.894 581.469,483.384 581.469,482.553L581.469,480.449C581.469,480.007 581.495,479.715 581.521,479.453L580.525,479.453ZM580.344,481.535C580.344,481.647 580.318,481.774 580.253,481.887C580.008,482.306 579.374,482.561 578.676,482.561C577.448,482.561 576.827,481.969 576.827,481.258C576.827,480.419 577.603,479.887 578.689,479.887C579.516,479.887 580.072,480.202 580.279,480.584C580.331,480.674 580.344,480.771 580.344,480.883L580.344,481.535Z" style="fill:rgb(27,58,119);fill-rule:nonzero;"/>
                <path d="M591.774,481.49L592.705,483.077L593.907,483.077L590.934,478.03L589.576,478.03L586.615,483.077L587.779,483.077L588.684,481.49L591.774,481.49ZM588.916,480.981L589.77,479.52C589.938,479.213 590.08,478.906 590.209,478.607L590.235,478.607C590.365,478.899 590.494,479.198 590.688,479.528L591.541,480.981L588.916,480.981Z" style="fill:rgb(222,3,31);fill-rule:nonzero;"/>
                <path d="M599.416,482.448C599.092,482.531 598.666,482.628 598.019,482.628C596.778,482.628 595.847,482.111 595.847,481.273C595.847,480.516 596.623,479.902 598.058,479.902C598.679,479.902 599.105,479.985 599.377,480.075L599.635,479.565C599.325,479.475 598.73,479.378 598.058,479.378C596.015,479.378 594.696,480.187 594.696,481.303C594.696,482.411 595.925,483.152 597.812,483.152C598.653,483.152 599.312,483.032 599.61,482.943L599.416,482.448Z" style="fill:rgb(222,3,31);fill-rule:nonzero;"/>
                <path d="M600.941,483.077L602.079,483.077L602.079,480.891C602.079,480.763 602.092,480.666 602.157,480.576C602.364,480.217 602.946,479.917 603.683,479.917C604.756,479.917 605.131,480.411 605.131,480.996L605.131,483.077L606.269,483.077L606.269,480.921C606.269,479.67 604.924,479.371 604.083,479.371C603.657,479.371 603.256,479.446 602.92,479.558C602.571,479.67 602.286,479.835 602.105,480.022L602.079,480.022L602.079,477.761L600.941,477.761L600.941,483.077Z" style="fill:rgb(222,3,31);fill-rule:nonzero;"/>
                <path d="M608.376,478.584L608.376,479.453L607.406,479.453L607.406,479.955L608.376,479.955L608.376,481.932C608.376,482.358 608.492,482.68 608.816,482.875C609.087,483.055 609.514,483.152 610.044,483.152C610.484,483.152 610.833,483.115 611.053,483.062L611.001,482.568C610.859,482.591 610.639,482.613 610.341,482.613C609.708,482.613 609.488,482.358 609.488,481.909L609.488,479.955L611.117,479.955L611.117,479.453L609.488,479.453L609.488,478.412L608.376,478.584Z" style="fill:rgb(222,3,31);fill-rule:nonzero;"/>
                <path d="M611.958,482.905C612.397,483.055 613.031,483.152 613.716,483.152C615.203,483.152 616.057,482.703 616.057,482.066C616.057,481.527 615.501,481.213 614.414,480.973C613.6,480.793 613.225,480.659 613.225,480.359C613.225,480.089 613.6,479.865 614.272,479.865C614.854,479.865 615.307,479.985 615.552,480.075L615.837,479.595C615.488,479.475 614.932,479.371 614.298,479.371C612.953,479.371 612.139,479.85 612.139,480.434C612.139,480.868 612.669,481.228 613.794,481.46C614.634,481.64 614.957,481.812 614.957,482.126C614.957,482.426 614.57,482.665 613.742,482.665C613.173,482.665 612.578,482.531 612.242,482.403L611.958,482.905Z" style="fill:rgb(222,3,31);fill-rule:nonzero;"/>
                <path d="M622.017,483.077C621.94,482.83 621.914,482.523 621.914,482.209L621.914,480.853C621.914,480.127 621.448,479.371 619.535,479.371C618.746,479.371 617.996,479.498 617.479,479.693L617.737,480.127C618.177,479.962 618.785,479.857 619.367,479.857C620.647,479.857 620.789,480.397 620.789,480.696L620.789,480.771C618.371,480.763 617.026,481.243 617.026,482.119C617.026,482.643 617.673,483.16 618.94,483.16C619.832,483.16 620.504,482.905 620.854,482.621L620.892,482.621L620.983,483.077L622.017,483.077ZM620.815,481.857C620.815,481.924 620.789,481.999 620.75,482.066C620.569,482.373 620.052,482.673 619.237,482.673C618.655,482.673 618.164,482.471 618.164,482.044C618.164,481.34 619.573,481.213 620.815,481.228L620.815,481.857Z" style="fill:rgb(222,3,31);fill-rule:nonzero;"/>
                <path d="M623.75,483.077L624.862,483.077L624.862,480.891C624.862,480.778 624.888,480.666 624.952,480.569C625.133,480.239 625.651,479.91 626.362,479.91C627.228,479.91 627.668,480.329 627.668,480.906L627.668,483.077L628.78,483.077L628.78,480.838C628.78,480.719 628.818,480.599 628.87,480.509C629.064,480.187 629.568,479.91 630.215,479.91C631.133,479.91 631.573,480.329 631.573,481.026L631.573,483.077L632.685,483.077L632.685,480.943C632.685,479.685 631.456,479.371 630.629,479.371C630.034,479.371 629.62,479.46 629.245,479.625C628.987,479.738 628.741,479.895 628.547,480.097L628.521,480.097C628.25,479.67 627.603,479.371 626.75,479.371C625.715,479.371 625.133,479.693 624.784,480.037L624.745,480.037L624.694,479.453L623.698,479.453C623.737,479.753 623.75,480.06 623.75,480.434L623.75,483.077Z" style="fill:rgb(222,3,31);fill-rule:nonzero;"/>
                <path d="M635.658,477.761L634.534,477.761L634.534,483.077L635.658,483.077L635.658,481.714L636.24,481.34L638.4,483.077L639.783,483.077L637.029,480.943L639.447,479.453L638.076,479.453L636.24,480.704C636.059,480.831 635.839,480.988 635.684,481.115L635.658,481.115L635.658,477.761Z" style="fill:rgb(222,3,31);fill-rule:nonzero;"/>
                <path d="M645.627,481.385C645.64,481.318 645.666,481.213 645.666,481.078C645.666,480.411 645.123,479.371 643.08,479.371C641.257,479.371 640.145,480.232 640.145,481.325C640.145,482.418 641.296,483.152 643.222,483.152C644.218,483.152 644.903,483.032 645.304,482.928L645.11,482.456C644.684,482.561 644.192,482.643 643.378,482.643C642.24,482.643 641.257,482.276 641.231,481.385L645.627,481.385ZM641.244,480.913C641.335,480.456 641.839,479.842 642.99,479.842C644.27,479.842 644.58,480.494 644.567,480.913L641.244,480.913Z" style="fill:rgb(222,3,31);fill-rule:nonzero;"/>
                <path d="M648.213,483.077L648.213,479.453L647.076,479.453L647.076,483.077L648.213,483.077ZM647.645,478.023C647.231,478.023 646.933,478.202 646.933,478.435C646.933,478.659 647.218,478.839 647.619,478.839C648.071,478.839 648.356,478.659 648.343,478.435C648.343,478.202 648.071,478.023 647.645,478.023Z" style="fill:rgb(222,3,31);fill-rule:nonzero;"/>
                <path d="M650.36,478.584L650.36,479.453L649.39,479.453L649.39,479.955L650.36,479.955L650.36,481.932C650.36,482.358 650.476,482.68 650.799,482.875C651.071,483.055 651.498,483.152 652.028,483.152C652.467,483.152 652.817,483.115 653.036,483.062L652.985,482.568C652.842,482.591 652.623,482.613 652.325,482.613C651.692,482.613 651.472,482.358 651.472,481.909L651.472,479.955L653.101,479.955L653.101,479.453L651.472,479.453L651.472,478.412L650.36,478.584Z" style="fill:rgb(222,3,31);fill-rule:nonzero;"/>
                <path d="M657.859,482.83C658.325,483.01 659.243,483.152 660.083,483.152C662.139,483.152 663.135,482.478 663.135,481.699C663.135,480.958 662.385,480.546 660.911,480.217C659.708,479.947 659.178,479.715 659.178,479.243C659.178,478.899 659.631,478.487 660.82,478.487C661.609,478.487 662.191,478.637 662.475,478.727L662.786,478.195C662.398,478.068 661.751,477.948 660.859,477.948C659.165,477.948 658.04,478.532 658.04,479.318C658.04,480.03 658.919,480.456 660.342,480.748C661.518,481.011 661.984,481.28 661.984,481.752C661.984,482.261 661.312,482.613 660.161,482.613C659.385,482.613 658.648,482.463 658.144,482.284L657.859,482.83Z" style="fill:rgb(244,142,0);fill-rule:nonzero;"/>
                <path d="M668.901,482.448C668.578,482.531 668.151,482.628 667.505,482.628C666.264,482.628 665.333,482.111 665.333,481.273C665.333,480.516 666.109,479.902 667.544,479.902C668.164,479.902 668.591,479.985 668.863,480.075L669.121,479.565C668.811,479.475 668.216,479.378 667.544,479.378C665.501,479.378 664.182,480.187 664.182,481.303C664.182,482.411 665.41,483.152 667.298,483.152C668.139,483.152 668.798,483.032 669.095,482.943L668.901,482.448Z" style="fill:rgb(244,142,0);fill-rule:nonzero;"/>
                <path d="M670.686,483.077L671.824,483.077L671.824,480.891C671.824,480.763 671.837,480.666 671.901,480.576C672.108,480.217 672.69,479.917 673.427,479.917C674.5,479.917 674.875,480.411 674.875,480.996L674.875,483.077L676.013,483.077L676.013,480.921C676.013,479.67 674.668,479.371 673.828,479.371C673.401,479.371 673,479.446 672.664,479.558C672.315,479.67 672.031,479.835 671.85,480.022L671.824,480.022L671.824,477.761L670.686,477.761L670.686,483.077Z" style="fill:rgb(244,142,0);fill-rule:nonzero;"/>
                <path d="M677.151,479.453L679.039,483.077L680.073,483.077L681.082,481.355C681.301,480.966 681.495,480.591 681.65,480.157L681.676,480.157C681.831,480.584 682.012,480.943 682.232,481.348L683.189,483.077L684.224,483.077L686.241,479.453L685.116,479.453L684.224,481.273C684.017,481.699 683.849,482.081 683.745,482.448L683.706,482.448C683.564,482.081 683.383,481.699 683.15,481.265L682.181,479.453L681.224,479.453L680.202,481.303C679.995,481.692 679.789,482.081 679.646,482.448L679.608,482.448C679.491,482.074 679.323,481.699 679.142,481.295L678.315,479.453L677.151,479.453Z" style="fill:rgb(244,142,0);fill-rule:nonzero;"/>
                <path d="M691.878,483.077C691.8,482.83 691.775,482.523 691.775,482.209L691.775,480.853C691.775,480.127 691.309,479.371 689.396,479.371C688.607,479.371 687.857,479.498 687.34,479.693L687.598,480.127C688.038,479.962 688.646,479.857 689.227,479.857C690.507,479.857 690.65,480.397 690.65,480.696L690.65,480.771C688.232,480.763 686.887,481.243 686.887,482.119C686.887,482.643 687.534,483.16 688.801,483.16C689.693,483.16 690.365,482.905 690.714,482.621L690.753,482.621L690.844,483.077L691.878,483.077ZM690.676,481.857C690.676,481.924 690.65,481.999 690.611,482.066C690.43,482.373 689.913,482.673 689.098,482.673C688.516,482.673 688.025,482.471 688.025,482.044C688.025,481.34 689.434,481.213 690.676,481.228L690.676,481.857Z" style="fill:rgb(244,142,0);fill-rule:nonzero;"/>
                <path d="M693.869,483.077L694.994,483.077L694.994,481.145C694.994,481.033 695.02,480.928 695.046,480.838C695.201,480.344 695.77,479.992 696.572,479.992C696.727,479.992 696.843,480 696.96,480.015L696.96,479.393C696.856,479.378 696.766,479.371 696.636,479.371C695.873,479.371 695.188,479.678 694.904,480.164L694.852,480.164L694.813,479.453L693.818,479.453C693.856,479.79 693.869,480.157 693.869,480.584L693.869,483.077Z" style="fill:rgb(244,142,0);fill-rule:nonzero;"/>
                <path d="M698.356,483.077L699.468,483.077L699.468,480.891C699.468,480.778 699.494,480.666 699.559,480.569C699.74,480.239 700.257,479.91 700.968,479.91C701.834,479.91 702.274,480.329 702.274,480.906L702.274,483.077L703.386,483.077L703.386,480.838C703.386,480.719 703.425,480.599 703.476,480.509C703.67,480.187 704.175,479.91 704.821,479.91C705.739,479.91 706.179,480.329 706.179,481.026L706.179,483.077L707.291,483.077L707.291,480.943C707.291,479.685 706.062,479.371 705.235,479.371C704.64,479.371 704.226,479.46 703.851,479.625C703.593,479.738 703.347,479.895 703.153,480.097L703.127,480.097C702.856,479.67 702.209,479.371 701.356,479.371C700.321,479.371 699.74,479.693 699.39,480.037L699.352,480.037L699.3,479.453L698.304,479.453C698.343,479.753 698.356,480.06 698.356,480.434L698.356,483.077Z" style="fill:rgb(244,142,0);fill-rule:nonzero;"/>
                <path d="M710.277,483.077L710.277,479.453L709.14,479.453L709.14,483.077L710.277,483.077ZM709.709,478.023C709.295,478.023 708.997,478.202 708.997,478.435C708.997,478.659 709.282,478.839 709.683,478.839C710.135,478.839 710.42,478.659 710.407,478.435C710.407,478.202 710.135,478.023 709.709,478.023Z" style="fill:rgb(244,142,0);fill-rule:nonzero;"/>
                <path d="M712.165,483.077L713.303,483.077L713.303,480.898C713.303,480.786 713.329,480.674 713.381,480.591C713.575,480.224 714.156,479.917 714.906,479.917C715.98,479.917 716.355,480.404 716.355,480.988L716.355,483.077L717.492,483.077L717.492,480.913C717.492,479.67 716.148,479.371 715.281,479.371C714.247,479.371 713.523,479.708 713.213,480.052L713.187,480.052L713.122,479.453L712.114,479.453C712.152,479.753 712.165,480.06 712.165,480.434L712.165,483.077Z" style="fill:rgb(244,142,0);fill-rule:nonzero;"/>
                <path d="M719.6,478.584L719.6,479.453L718.63,479.453L718.63,479.955L719.6,479.955L719.6,481.932C719.6,482.358 719.716,482.68 720.04,482.875C720.311,483.055 720.738,483.152 721.268,483.152C721.708,483.152 722.057,483.115 722.276,483.062L722.225,482.568C722.083,482.591 721.863,482.613 721.565,482.613C720.932,482.613 720.712,482.358 720.712,481.909L720.712,479.955L722.341,479.955L722.341,479.453L720.712,479.453L720.712,478.412L719.6,478.584Z" style="fill:rgb(244,142,0);fill-rule:nonzero;"/>
                <path d="M728.651,481.385C728.664,481.318 728.69,481.213 728.69,481.078C728.69,480.411 728.147,479.371 726.104,479.371C724.281,479.371 723.169,480.232 723.169,481.325C723.169,482.418 724.319,483.152 726.246,483.152C727.242,483.152 727.927,483.032 728.328,482.928L728.134,482.456C727.707,482.561 727.216,482.643 726.401,482.643C725.263,482.643 724.281,482.276 724.255,481.385L728.651,481.385ZM724.268,480.913C724.358,480.456 724.862,479.842 726.013,479.842C727.293,479.842 727.604,480.494 727.591,480.913L724.268,480.913Z" style="fill:rgb(244,142,0);fill-rule:nonzero;"/>
                <rect x="730.099" y="477.761" width="1.138" height="5.317" style="fill:rgb(244,142,0);fill-rule:nonzero;"/>
                <rect x="733.409" y="477.761" width="1.138" height="5.317" style="fill:rgb(244,142,0);fill-rule:nonzero;"/>
                <path d="M737.599,483.077L737.599,479.453L736.461,479.453L736.461,483.077L737.599,483.077ZM737.03,478.023C736.616,478.023 736.318,478.202 736.318,478.435C736.318,478.659 736.603,478.839 737.004,478.839C737.456,478.839 737.741,478.659 737.728,478.435C737.728,478.202 737.456,478.023 737.03,478.023Z" style="fill:rgb(244,142,0);fill-rule:nonzero;"/>
                <path d="M744.141,479.453L744.089,480L744.064,480C743.792,479.7 743.197,479.371 742.111,479.371C740.676,479.371 739.292,480.067 739.292,481.295C739.292,482.299 740.404,483.062 741.956,483.062C742.926,483.062 743.598,482.793 743.947,482.456L743.973,482.456L743.973,482.86C743.973,483.774 743.12,484.126 741.956,484.126C741.18,484.126 740.534,483.991 740.12,483.841L739.835,484.343C740.34,484.538 741.167,484.642 741.917,484.642C742.706,484.642 743.585,484.538 744.193,484.208C744.801,483.894 745.085,483.384 745.085,482.553L745.085,480.449C745.085,480.007 745.111,479.715 745.137,479.453L744.141,479.453ZM743.96,481.535C743.96,481.647 743.934,481.774 743.87,481.887C743.624,482.306 742.99,482.561 742.292,482.561C741.064,482.561 740.443,481.969 740.443,481.258C740.443,480.419 741.219,479.887 742.305,479.887C743.133,479.887 743.689,480.202 743.895,480.584C743.947,480.674 743.96,480.771 743.96,480.883L743.96,481.535Z" style="fill:rgb(244,142,0);fill-rule:nonzero;"/>
                <path d="M752.003,481.385C752.016,481.318 752.041,481.213 752.041,481.078C752.041,480.411 751.498,479.371 749.455,479.371C747.632,479.371 746.52,480.232 746.52,481.325C746.52,482.418 747.671,483.152 749.598,483.152C750.593,483.152 751.279,483.032 751.679,482.928L751.485,482.456C751.059,482.561 750.567,482.643 749.753,482.643C748.615,482.643 747.632,482.276 747.606,481.385L752.003,481.385ZM747.619,480.913C747.71,480.456 748.214,479.842 749.365,479.842C750.645,479.842 750.955,480.494 750.942,480.913L747.619,480.913Z" style="fill:rgb(244,142,0);fill-rule:nonzero;"/>
                <path d="M753.709,483.077L754.847,483.077L754.847,480.898C754.847,480.786 754.873,480.674 754.925,480.591C755.119,480.224 755.701,479.917 756.451,479.917C757.524,479.917 757.899,480.404 757.899,480.988L757.899,483.077L759.037,483.077L759.037,480.913C759.037,479.67 757.692,479.371 756.825,479.371C755.791,479.371 755.067,479.708 754.757,480.052L754.731,480.052L754.666,479.453L753.658,479.453C753.696,479.753 753.709,480.06 753.709,480.434L753.709,483.077Z" style="fill:rgb(244,142,0);fill-rule:nonzero;"/>
                <path d="M760.433,483.077L765.514,483.077L765.514,482.553L761.855,482.553L761.855,482.538C762.14,482.351 762.398,482.171 762.657,481.969L765.45,479.865L765.463,479.453L760.692,479.453L760.692,479.985L764.079,479.985L764.079,480C763.795,480.194 763.536,480.367 763.265,480.561L760.433,482.695L760.433,483.077Z" style="fill:rgb(244,142,0);fill-rule:nonzero;"/>
                <path d="M503.458,494.191L504.583,494.191L504.583,492.266L505.411,491.712L508.281,494.191L509.613,494.191L506.212,491.285L509.367,489.144L507.971,489.144L505.307,491.038C505.087,491.203 504.855,491.383 504.622,491.578L504.583,491.578L504.583,489.144L503.458,489.144L503.458,494.191Z" style="fill:rgb(71,72,71);fill-rule:nonzero;"/>
                <path d="M510.686,494.191L511.811,494.191L511.811,492.259C511.811,492.147 511.837,492.042 511.863,491.952C512.018,491.458 512.587,491.106 513.388,491.106C513.543,491.106 513.66,491.113 513.776,491.128L513.776,490.507C513.673,490.492 513.582,490.484 513.453,490.484C512.69,490.484 512.005,490.791 511.72,491.278L511.669,491.278L511.63,490.567L510.634,490.567C510.673,490.904 510.686,491.271 510.686,491.697L510.686,494.191Z" style="fill:rgb(71,72,71);fill-rule:nonzero;"/>
                <path d="M520.202,492.499C520.215,492.431 520.241,492.326 520.241,492.192C520.241,491.525 519.698,490.484 517.655,490.484C515.832,490.484 514.72,491.345 514.72,492.439C514.72,493.532 515.871,494.266 517.797,494.266C518.793,494.266 519.478,494.146 519.879,494.041L519.685,493.569C519.259,493.674 518.767,493.757 517.953,493.757C516.815,493.757 515.832,493.39 515.806,492.499L520.202,492.499ZM515.819,492.027C515.91,491.57 516.414,490.956 517.565,490.956C518.845,490.956 519.155,491.607 519.142,492.027L515.819,492.027Z" style="fill:rgb(71,72,71);fill-rule:nonzero;"/>
                <path d="M523.047,494.191L523.047,490.567L521.909,490.567L521.909,494.191L523.047,494.191ZM522.478,489.136C522.064,489.136 521.767,489.316 521.767,489.548C521.767,489.773 522.051,489.953 522.452,489.953C522.905,489.953 523.189,489.773 523.176,489.548C523.176,489.316 522.905,489.136 522.478,489.136Z" style="fill:rgb(71,72,71);fill-rule:nonzero;"/>
                <path d="M524.754,494.019C525.193,494.168 525.827,494.266 526.512,494.266C527.999,494.266 528.853,493.817 528.853,493.18C528.853,492.641 528.297,492.326 527.211,492.087C526.396,491.907 526.021,491.772 526.021,491.473C526.021,491.203 526.396,490.978 527.068,490.978C527.65,490.978 528.103,491.098 528.348,491.188L528.633,490.709C528.284,490.589 527.728,490.484 527.094,490.484C525.749,490.484 524.935,490.964 524.935,491.548C524.935,491.982 525.465,492.341 526.59,492.573C527.43,492.753 527.754,492.925 527.754,493.24C527.754,493.539 527.366,493.779 526.538,493.779C525.969,493.779 525.374,493.644 525.038,493.517L524.754,494.019Z" style="fill:rgb(71,72,71);fill-rule:nonzero;"/>
                <path d="M529.797,490.567L532.176,494.191L533.262,494.191L535.718,490.567L534.529,490.567L533.314,492.603C533.107,492.933 532.926,493.232 532.783,493.532L532.745,493.532C532.615,493.232 532.447,492.933 532.24,492.603L531.012,490.567L529.797,490.567Z" style="fill:rgb(71,72,71);fill-rule:nonzero;"/>
                <path d="M542.08,492.499C542.093,492.431 542.119,492.326 542.119,492.192C542.119,491.525 541.576,490.484 539.533,490.484C537.71,490.484 536.598,491.345 536.598,492.439C536.598,493.532 537.749,494.266 539.675,494.266C540.671,494.266 541.356,494.146 541.757,494.041L541.563,493.569C541.136,493.674 540.645,493.757 539.83,493.757C538.692,493.757 537.71,493.39 537.684,492.499L542.08,492.499ZM537.697,492.027C537.787,491.57 538.292,490.956 539.442,490.956C540.722,490.956 541.033,491.607 541.02,492.027L537.697,492.027Z" style="fill:rgb(71,72,71);fill-rule:nonzero;"/>
                <path d="M543.787,494.191L544.912,494.191L544.912,492.259C544.912,492.147 544.938,492.042 544.963,491.952C545.119,491.458 545.688,491.106 546.489,491.106C546.644,491.106 546.761,491.113 546.877,491.128L546.877,490.507C546.774,490.492 546.683,490.484 546.554,490.484C545.791,490.484 545.106,490.791 544.821,491.278L544.77,491.278L544.731,490.567L543.735,490.567C543.774,490.904 543.787,491.271 543.787,491.697L543.787,494.191Z" style="fill:rgb(71,72,71);fill-rule:nonzero;"/>
                <path d="M549.205,494.191L549.256,493.592L549.295,493.592C549.76,494.071 550.485,494.273 551.39,494.273C552.786,494.273 554.195,493.629 554.195,492.334C554.208,491.233 553.109,490.484 551.558,490.484C550.549,490.484 549.825,490.746 549.424,491.151L549.398,491.151L549.398,488.874L548.274,488.874L548.274,493.255C548.274,493.577 548.248,493.944 548.222,494.191L549.205,494.191ZM549.398,492.087C549.398,491.982 549.437,491.892 549.463,491.817C549.696,491.315 550.42,491.008 551.196,491.008C552.411,491.008 553.058,491.63 553.058,492.356C553.058,493.188 552.346,493.749 551.157,493.749C550.329,493.749 549.67,493.435 549.45,492.978C549.424,492.903 549.398,492.821 549.398,492.738L549.398,492.087Z" style="fill:rgb(71,72,71);fill-rule:nonzero;"/>
                <path d="M560.389,494.191C560.311,493.944 560.286,493.637 560.286,493.322L560.286,491.967C560.286,491.241 559.82,490.484 557.906,490.484C557.118,490.484 556.368,490.612 555.851,490.806L556.109,491.241C556.549,491.076 557.156,490.971 557.738,490.971C559.018,490.971 559.161,491.51 559.161,491.81L559.161,491.885C556.743,491.877 555.398,492.356 555.398,493.232C555.398,493.757 556.044,494.273 557.312,494.273C558.204,494.273 558.876,494.019 559.225,493.734L559.264,493.734L559.355,494.191L560.389,494.191ZM559.186,492.97C559.186,493.038 559.161,493.113 559.122,493.18C558.941,493.487 558.424,493.787 557.609,493.787C557.027,493.787 556.536,493.584 556.536,493.158C556.536,492.454 557.945,492.326 559.186,492.341L559.186,492.97Z" style="fill:rgb(71,72,71);fill-rule:nonzero;"/>
                <path d="M562.38,494.191L563.518,494.191L563.518,492.012C563.518,491.9 563.544,491.787 563.596,491.705C563.79,491.338 564.371,491.031 565.121,491.031C566.195,491.031 566.57,491.518 566.57,492.102L566.57,494.191L567.707,494.191L567.707,492.027C567.707,490.784 566.363,490.484 565.496,490.484C564.462,490.484 563.738,490.821 563.428,491.166L563.402,491.166L563.337,490.567L562.328,490.567C562.367,490.866 562.38,491.173 562.38,491.548L562.38,494.191Z" style="fill:rgb(71,72,71);fill-rule:nonzero;"/>
                <path d="M574.082,488.874L574.082,491.038L574.056,491.038C573.772,490.746 573.125,490.484 572.168,490.484C570.642,490.484 569.349,491.226 569.362,492.431C569.362,493.532 570.526,494.273 572.039,494.273C573.06,494.273 573.823,493.966 574.172,493.562L574.198,493.562L574.25,494.191L575.271,494.191C575.233,493.944 575.22,493.577 575.22,493.255L575.22,488.874L574.082,488.874ZM574.082,492.671C574.082,492.776 574.069,492.866 574.03,492.955C573.823,493.45 573.125,493.742 572.362,493.742C571.134,493.742 570.513,493.135 570.513,492.401C570.513,491.6 571.211,491.001 572.388,491.001C573.241,491.001 573.862,491.345 574.03,491.765C574.069,491.847 574.082,491.959 574.082,492.042L574.082,492.671Z" style="fill:rgb(71,72,71);fill-rule:nonzero;"/>
                <path d="M581.65,494.176C582.219,494.213 582.891,494.236 583.693,494.236C585.387,494.236 586.731,493.981 587.546,493.51C588.36,493.045 588.8,492.371 588.8,491.548C588.8,490.731 588.348,490.147 587.572,489.735C586.809,489.324 585.658,489.106 584.042,489.106C583.15,489.106 582.335,489.151 581.65,489.211L581.65,494.176ZM582.775,489.691C583.072,489.653 583.512,489.623 584.094,489.623C586.473,489.623 587.636,490.379 587.623,491.57C587.623,492.933 586.318,493.712 583.913,493.712C583.473,493.712 583.059,493.704 582.775,493.674L582.775,489.691Z" style="fill:rgb(71,72,71);fill-rule:nonzero;"/>
                <path d="M591.619,494.191L591.619,490.567L590.481,490.567L590.481,494.191L591.619,494.191ZM591.05,489.136C590.636,489.136 590.339,489.316 590.339,489.548C590.339,489.773 590.623,489.953 591.024,489.953C591.477,489.953 591.761,489.773 591.748,489.548C591.748,489.316 591.477,489.136 591.05,489.136Z" style="fill:rgb(71,72,71);fill-rule:nonzero;"/>
                <path d="M598.795,492.499C598.808,492.431 598.834,492.326 598.834,492.192C598.834,491.525 598.291,490.484 596.248,490.484C594.425,490.484 593.313,491.345 593.313,492.439C593.313,493.532 594.463,494.266 596.39,494.266C597.386,494.266 598.071,494.146 598.472,494.041L598.278,493.569C597.851,493.674 597.36,493.757 596.545,493.757C595.407,493.757 594.425,493.39 594.399,492.499L598.795,492.499ZM594.412,492.027C594.502,491.57 595.007,490.956 596.157,490.956C597.437,490.956 597.748,491.607 597.735,492.027L594.412,492.027Z" style="fill:rgb(71,72,71);fill-rule:nonzero;"/>
                <path d="M600.502,495.674L601.627,495.674L601.627,493.704L601.653,493.704C602.028,494.064 602.752,494.273 603.579,494.273C605.053,494.273 606.424,493.629 606.424,492.326C606.424,491.226 605.286,490.484 603.773,490.484C602.752,490.484 602.015,490.746 601.549,491.188L601.523,491.188L601.472,490.567L600.45,490.567C600.476,490.911 600.502,491.285 600.502,491.75L600.502,495.674ZM601.627,492.094C601.627,492.004 601.665,491.907 601.704,491.825C601.924,491.33 602.648,491.008 603.424,491.008C604.626,491.008 605.286,491.63 605.286,492.356C605.286,493.188 604.588,493.757 603.385,493.757C602.571,493.757 601.885,493.442 601.678,492.985C601.653,492.903 601.627,492.813 601.627,492.716L601.627,492.094Z" style="fill:rgb(71,72,71);fill-rule:nonzero;"/>
                <path d="M608.118,494.191L609.255,494.191L609.255,492.004C609.255,491.877 609.268,491.78 609.333,491.69C609.54,491.33 610.122,491.031 610.859,491.031C611.932,491.031 612.307,491.525 612.307,492.109L612.307,494.191L613.445,494.191L613.445,492.034C613.445,490.784 612.1,490.484 611.26,490.484C610.833,490.484 610.432,490.559 610.096,490.671C609.747,490.784 609.462,490.949 609.281,491.136L609.255,491.136L609.255,488.874L608.118,488.874L608.118,494.191Z" style="fill:rgb(71,72,71);fill-rule:nonzero;"/>
                <path d="M618.203,490.484C616.47,490.484 615.1,491.196 615.1,492.409C615.1,493.554 616.406,494.273 618.1,494.273C619.612,494.273 621.216,493.689 621.216,492.349C621.216,491.241 620,490.484 618.203,490.484ZM618.177,490.978C619.522,490.978 620.052,491.757 620.052,492.371C620.052,493.188 619.237,493.779 618.151,493.779C617.039,493.779 616.251,493.18 616.251,492.386C616.251,491.697 616.832,490.978 618.177,490.978Z" style="fill:rgb(71,72,71);fill-rule:nonzero;"/>
                <rect x="622.91" y="488.874" width="1.138" height="5.317" style="fill:rgb(71,72,71);fill-rule:nonzero;"/>
                <path d="M625.508,494.191L630.59,494.191L630.59,493.667L626.931,493.667L626.931,493.652C627.215,493.465 627.474,493.285 627.732,493.083L630.525,490.978L630.538,490.567L625.767,490.567L625.767,491.098L629.155,491.098L629.155,491.113C628.87,491.308 628.612,491.48 628.34,491.675L625.508,493.809L625.508,494.191Z" style="fill:rgb(71,72,71);fill-rule:nonzero;"/>
                <rect x="631.456" y="491.922" width="3.194" height="0.487" style="fill:rgb(71,72,71);fill-rule:nonzero;"/>
                <path d="M637.339,494.191L637.339,492.034C637.339,491.196 637.314,490.589 637.249,489.953L637.288,489.945C637.727,490.492 638.309,491.068 638.917,491.63L641.684,494.191L642.822,494.191L642.822,489.144L641.761,489.144L641.761,491.256C641.761,492.042 641.787,492.656 641.891,493.33L641.865,493.337C641.451,492.821 640.947,492.289 640.3,491.697L637.508,489.144L636.279,489.144L636.279,494.191L637.339,494.191Z" style="fill:rgb(71,72,71);fill-rule:nonzero;"/>
                <path d="M646.145,494.191L646.145,490.567L645.007,490.567L645.007,494.191L646.145,494.191ZM645.576,489.136C645.162,489.136 644.865,489.316 644.865,489.548C644.865,489.773 645.149,489.953 645.55,489.953C646.003,489.953 646.287,489.773 646.274,489.548C646.274,489.316 646.003,489.136 645.576,489.136Z" style="fill:rgb(71,72,71);fill-rule:nonzero;"/>
                <path d="M653.321,492.499C653.334,492.431 653.36,492.326 653.36,492.192C653.36,491.525 652.817,490.484 650.774,490.484C648.951,490.484 647.839,491.345 647.839,492.439C647.839,493.532 648.989,494.266 650.916,494.266C651.912,494.266 652.597,494.146 652.998,494.041L652.804,493.569C652.377,493.674 651.886,493.757 651.071,493.757C649.933,493.757 648.951,493.39 648.925,492.499L653.321,492.499ZM648.938,492.027C649.028,491.57 649.532,490.956 650.683,490.956C651.963,490.956 652.274,491.607 652.261,492.027L648.938,492.027Z" style="fill:rgb(71,72,71);fill-rule:nonzero;"/>
                <path d="M655.028,494.191L656.166,494.191L656.166,492.012C656.166,491.9 656.191,491.787 656.243,491.705C656.437,491.338 657.019,491.031 657.769,491.031C658.842,491.031 659.217,491.518 659.217,492.102L659.217,494.191L660.355,494.191L660.355,492.027C660.355,490.784 659.01,490.484 658.144,490.484C657.109,490.484 656.385,490.821 656.075,491.166L656.049,491.166L655.985,490.567L654.976,490.567C655.015,490.866 655.028,491.173 655.028,491.548L655.028,494.191Z" style="fill:rgb(71,72,71);fill-rule:nonzero;"/>
                <path d="M663.393,494.191L663.445,493.592L663.484,493.592C663.949,494.071 664.673,494.273 665.579,494.273C666.975,494.273 668.384,493.629 668.384,492.334C668.397,491.233 667.298,490.484 665.747,490.484C664.738,490.484 664.014,490.746 663.613,491.151L663.587,491.151L663.587,488.874L662.462,488.874L662.462,493.255C662.462,493.577 662.437,493.944 662.411,494.191L663.393,494.191ZM663.587,492.087C663.587,491.982 663.626,491.892 663.652,491.817C663.885,491.315 664.609,491.008 665.385,491.008C666.6,491.008 667.247,491.63 667.247,492.356C667.247,493.188 666.535,493.749 665.346,493.749C664.518,493.749 663.859,493.435 663.639,492.978C663.613,492.903 663.587,492.821 663.587,492.738L663.587,492.087Z" style="fill:rgb(71,72,71);fill-rule:nonzero;"/>
                <path d="M675.315,490.567L674.177,490.567L674.177,492.791C674.177,492.91 674.138,493.03 674.074,493.128C673.867,493.42 673.337,493.727 672.574,493.727C671.539,493.727 671.177,493.262 671.177,492.573L671.177,490.567L670.039,490.567L670.039,492.686C670.039,493.959 671.216,494.273 672.199,494.273C673.311,494.273 673.97,493.891 674.268,493.599L674.293,493.599L674.358,494.191L675.367,494.191C675.328,493.906 675.315,493.577 675.315,493.202L675.315,490.567Z" style="fill:rgb(71,72,71);fill-rule:nonzero;"/>
                <path d="M677.461,494.191L678.586,494.191L678.586,492.259C678.586,492.147 678.612,492.042 678.638,491.952C678.793,491.458 679.362,491.106 680.164,491.106C680.319,491.106 680.435,491.113 680.552,491.128L680.552,490.507C680.448,490.492 680.358,490.484 680.228,490.484C679.465,490.484 678.78,490.791 678.496,491.278L678.444,491.278L678.405,490.567L677.41,490.567C677.448,490.904 677.461,491.271 677.461,491.697L677.461,494.191Z" style="fill:rgb(71,72,71);fill-rule:nonzero;"/>
                <path d="M686.344,490.567L686.292,491.113L686.267,491.113C685.995,490.814 685.4,490.484 684.314,490.484C682.879,490.484 681.495,491.181 681.495,492.409C681.495,493.412 682.607,494.176 684.159,494.176C685.129,494.176 685.801,493.906 686.15,493.569L686.176,493.569L686.176,493.974C686.176,494.887 685.323,495.239 684.159,495.239C683.383,495.239 682.737,495.105 682.323,494.955L682.038,495.456C682.543,495.651 683.37,495.756 684.12,495.756C684.909,495.756 685.788,495.651 686.396,495.322C687.004,495.007 687.288,494.498 687.288,493.667L687.288,491.563C687.288,491.121 687.314,490.829 687.34,490.567L686.344,490.567ZM686.163,492.648C686.163,492.761 686.137,492.888 686.073,493C685.827,493.42 685.193,493.674 684.495,493.674C683.267,493.674 682.646,493.083 682.646,492.371C682.646,491.533 683.422,491.001 684.508,491.001C685.336,491.001 685.892,491.315 686.099,491.697C686.15,491.787 686.163,491.885 686.163,491.997L686.163,492.648Z" style="fill:rgb(71,72,71);fill-rule:nonzero;"/>
                <path d="M695.787,494.191L696.886,494.191L696.886,489.324L695.916,489.324L694.08,489.893L694.3,490.394L695.761,489.938L695.787,489.938L695.787,494.191Z" style="fill:rgb(71,72,71);fill-rule:nonzero;"/>
            </g>
            <g transform="matrix(1.0922,0,0,1.12342,602.704,2577)">
                <path d="M493.544,172.689C493.544,173.471 493.492,174.149 493.283,174.775C492.241,178.893 488.852,181.291 485.255,181.291C479.312,181.291 476.497,176.13 476.497,170.5C476.497,164.035 479.937,159.291 485.412,159.291C489.478,159.291 492.449,162.054 493.283,165.391C493.492,166.121 493.544,167.007 493.544,167.684L493.544,172.689ZM496.046,177.016L496.046,145.737L493.544,145.737L493.544,161.637L493.44,161.637C492.345,159.447 489.582,157.206 485.255,157.206C479.104,157.206 473.942,162.419 473.995,170.76C473.995,178.215 478.582,183.376 484.786,183.376C489.426,183.376 492.398,180.822 493.7,178.058L493.804,178.058L494.013,182.802L496.255,182.802C496.098,181.03 496.046,178.841 496.046,177.016" style="fill:rgb(71,72,71);fill-rule:nonzero;"/>
            </g>
            <g transform="matrix(0,-1.12342,-1.0922,0,1327.41,3335.3)">
                <rect x="492.189" y="157.571" width="25.022" height="2.503" style="fill:rgb(71,72,71);"/>
            </g>
            <g transform="matrix(1.0922,0,0,1.12342,602.704,2589.83)">
                <path d="M529.672,156.632L513.876,156.632C514.346,152.775 516.692,147.874 522.218,147.874C528.265,147.874 529.724,153.139 529.672,156.632M532.278,157.101C532.278,153.505 530.715,145.789 522.53,145.789C516.066,145.789 511.27,151.002 511.27,159.343C511.27,166.694 515.753,171.907 522.947,171.907C527.326,171.907 529.881,170.812 530.819,170.29L530.193,168.362C528.786,169.04 526.909,169.769 523.26,169.769C518.099,169.769 513.72,166.589 513.72,158.613L532.174,158.613C532.278,158.144 532.278,157.779 532.278,157.101" style="fill:rgb(71,72,71);fill-rule:nonzero;"/>
            </g>
            <g transform="matrix(1.0922,0,0,1.12342,602.704,2576.45)">
                <rect x="461.125" y="146.231" width="5.005" height="37.145" style="fill:rgb(244,142,0);"/>
            </g>
            <g transform="matrix(1.0922,0,0,1.12342,602.704,2576.45)">
                <rect x="451.113" y="146.231" width="5.005" height="37.145" style="fill:rgb(222,3,31);"/>
            </g>
            <g transform="matrix(1.0922,0,0,1.12342,602.704,2576.45)">
                <rect x="441.103" y="146.231" width="5.005" height="37.145" style="fill:rgb(27,58,119);"/>
            </g>
            <g transform="matrix(1.0922,0,0,1.12342,602.704,2576.45)">
                <rect x="431.091" y="146.231" width="5.005" height="37.145" style="fill:rgb(0,151,50);"/>
            </g>
            <g transform="matrix(0,-1.12342,-1.0922,0,1348.22,3313.9)">
                <path d="M504.701,175.867C503.592,175.867 502.693,176.765 502.693,177.875C502.693,178.983 503.592,179.882 504.701,179.882C505.809,179.882 506.708,178.983 506.708,177.875C506.708,176.765 505.809,175.867 504.701,175.867" style="fill:rgb(71,72,71);fill-rule:nonzero;"/>
            </g>
            <g transform="matrix(1.0922,0,0,1.12342,602.704,2576.15)">
                <path d="M548.711,178.954C547.141,178.954 545.963,178.898 545.066,178.786L545.066,166.45L548.486,166.45C553.252,166.45 557.065,168.244 557.065,172.618C557.065,177.272 553.141,178.954 548.711,178.954M545.066,151.087C545.795,150.919 546.973,150.807 548.991,150.807C553.364,150.807 556.056,152.433 556.056,155.965C556.056,159.161 553.364,161.404 548.598,161.404L545.066,161.404L545.066,151.087ZM556.729,163.478L556.729,163.366C560.822,161.852 563.009,158.656 563.009,155.18C563.009,151.984 561.438,149.517 559.083,148.115C556.504,146.321 553.364,145.704 548.262,145.704C544.393,145.704 540.412,146.041 538.225,146.489L538.225,183.664C539.964,183.888 542.879,184.169 546.692,184.169C553.589,184.169 558.018,182.991 560.71,180.636C562.896,178.842 564.354,176.207 564.354,172.842C564.354,167.628 560.71,164.488 556.729,163.478" style="fill:rgb(71,72,71);fill-rule:nonzero;"/>
            </g>
            <g transform="matrix(1.0922,0,0,1.12342,602.704,2587.8)">
                <path d="M583.705,163.816C583.705,164.265 583.649,164.825 583.48,165.33C582.864,167.293 580.845,169.087 578.098,169.087C575.911,169.087 574.173,167.853 574.173,165.162C574.173,161.013 578.826,159.947 583.705,160.059L583.705,163.816ZM590.433,166.844L590.433,156.976C590.433,151.032 587.91,145.48 579.163,145.48C574.846,145.48 571.313,146.658 569.294,147.892L570.64,152.378C572.49,151.2 575.294,150.359 577.985,150.359C582.808,150.359 583.536,153.33 583.536,155.125L583.536,155.574C573.443,155.517 567.332,158.994 567.332,165.891C567.332,170.041 570.416,174.021 575.911,174.021C579.443,174.021 582.302,172.507 583.985,170.376L584.154,170.376L584.601,173.404L590.826,173.404C590.545,171.722 590.433,169.311 590.433,166.844" style="fill:rgb(71,72,71);fill-rule:nonzero;"/>
            </g>
            <g transform="matrix(1.0922,0,0,1.12342,602.704,2587.74)">
                <path d="M596.384,167.123C597.954,168.077 600.925,169.085 603.391,169.085C606.42,169.085 607.766,167.852 607.766,166.058C607.766,164.208 606.645,163.255 603.28,162.077C597.954,160.227 595.711,157.311 595.766,154.114C595.766,149.293 599.747,145.536 606.084,145.536C609.112,145.536 611.747,146.321 613.316,147.161L611.971,152.04C610.795,151.367 608.607,150.47 606.196,150.47C603.729,150.47 602.384,151.648 602.384,153.33C602.384,155.068 603.673,155.909 607.149,157.142C612.084,158.937 614.382,161.46 614.439,165.497C614.439,170.432 610.569,174.02 603.335,174.02C600.029,174.02 597.055,173.235 595.036,172.114L596.384,167.123Z" style="fill:rgb(71,72,71);fill-rule:nonzero;"/>
            </g>
            <g transform="matrix(1.0922,0,0,1.12342,602.704,2589.94)">
                <rect x="619.162" y="146.25" width="6.826" height="25.094" style="fill:rgb(71,72,71);"/>
            </g>
            <g transform="matrix(1.0922,0,0,1.12342,602.704,2587.74)">
                <path d="M632.113,167.123C633.683,168.077 636.655,169.085 639.122,169.085C642.15,169.085 643.495,167.852 643.495,166.058C643.495,164.208 642.374,163.255 639.01,162.077C633.683,160.227 631.441,157.311 631.497,154.114C631.497,149.293 635.477,145.536 641.814,145.536C644.841,145.536 647.477,146.321 649.046,147.161L647.701,152.04C646.524,151.367 644.336,150.47 641.926,150.47C639.459,150.47 638.113,151.648 638.113,153.33C638.113,155.068 639.403,155.909 642.878,157.142C647.813,158.937 650.113,161.46 650.168,165.497C650.168,170.432 646.299,174.02 639.066,174.02C635.758,174.02 632.786,173.235 630.767,172.114L632.113,167.123Z" style="fill:rgb(71,72,71);fill-rule:nonzero;"/>
            </g>
            <g transform="matrix(0,-1.12342,-1.0922,0,1478.91,3444.32)">
                <path d="M622.575,175.892C620.496,175.892 618.81,177.578 618.81,179.657C618.81,181.736 620.496,183.422 622.575,183.422C624.654,183.422 626.34,181.736 626.34,179.657C626.34,177.578 624.654,175.892 622.575,175.892" style="fill:rgb(71,72,71);fill-rule:nonzero;"/>
            </g>
        </g>
    </g>
</svg>
